{
	"info": {
		"_postman_id": "5f7fd3f3-3328-4fe7-ba23-f409e8268d84",
		"name": "In Need Of Soup",
		"description": "This api documentation presents a method of getting information available from inneedofsoup.xyz. It collects soup kitchen/non-profit organization information from charity API, nutrition information from usda.gov, and map information from HERE and present them in a RESTful, organized fashion. \r\n\r\n# Overview\r\n  This API describes what http methods will be available for future use. \r\n\r\n# Authentication\r\n  No authentication is required for obtaining the information\r\n\r\n# Error Code\r\n  200: OK  \r\n  403: Access Denied  \r\n  404: Not Found  \r\n  \r\n# Rate Limit\r\n  There are no hard constraint on the number of request that can be made. However, on a goodwill basis, please do no spam requests as some of the request naturally have a cost to them. \r\n    \r\n# About Searching, filtering, and sorting\r\n  As stated in each model, searching, sorting, and filtering can be achieved through the specifications of the flask-restless documentation. The exact format of the search query can be found at [flask-restless searching query documentation]. The exact values of each parameter are specified within each individual documentation below.\r\n  \r\n  [flask-restless searching query documentation]:https://flask-restless.readthedocs.io/en/stable/searchformat.html",
		"schema": "https://schema.getpostman.com/json/collection/v2.1.0/collection.json"
	},
	"item": [
		{
			"name": "Soup Kitchen",
			"item": [
				{
					"name": "Get Soup Kitchens",
					"event": [
						{
							"listen": "test",
							"script": {
								"id": "43c1d372-29d7-42b7-a456-546ec29fc64c",
								"exec": [
									"pm.test(\"Status code is 200\", function () {",
									"    pm.response.to.have.status(200);",
									"});",
									"",
									"pm.test(\"Body matches string\", function () {",
									"    pm.expect(pm.response.text()).to.include(\"address\");",
									"});",
									"",
									"pm.test(\"Number of result matches\", function () {",
									"    pm.expect(pm.response.json().num_results).to.equal(1);",
									"});"
								],
								"type": "text/javascript"
							}
						}
					],
					"request": {
						"method": "GET",
						"header": [
							{
								"description": "Header for search query.",
								"key": "Content-Type",
								"type": "text",
								"value": "application/json"
							}
						],
						"body": {
							"mode": "raw",
							"raw": ""
						},
						"url": {
							"raw": "https://api.inneedofsoup.xyz/api/soup_kitchen?q={\"filters\":[{\"name\":\"name\",\"op\":\"ilike\",\"val\":\"%paw%\"}]}",
							"protocol": "https",
							"host": [
								"api",
								"inneedofsoup",
								"xyz"
							],
							"path": [
								"api",
								"soup_kitchen"
							],
							"query": [
								{
									"key": "q",
									"value": "{\"filters\":[{\"name\":\"name\",\"op\":\"ilike\",\"val\":\"%paw%\"}]}",
									"description": "#### A Json string that specify the search query. The specification should match the  format of the search query as stated in the flask-restless documentation. \n\n#### A biref description is shown below:\n\n  \n#### filters  \n  filters the search query down to a specific subset.\n  \n  {\"name\": \\<fieldname\\>, \"op\":\\<operatorname\\>, \"val\":\\<argument\\>}\n  \n  \\<fieldname\\> could be any one of the attributes listed below:  \n  \n  * name: name of the soup kitchen (string)  \n  * address: address of the soup kitchen (street level) (string)  \n  * city: city of where the soup kitchen is located (string)  \n  * state: state of where the soup kitchen is located (string)  \n  * zip_code: zip code of the soup kitchen (string)  \n  * ein: federal employer identification number of the soup kitchen (int)  \n  * img: an url linking to a picture representing the soup kitchen (string)  \n  * latitude: latitude of the soup kitchen (float)  \n  * longitude: longitude of the soup kitchen (float)  \n  * mission_statement: the mission statement of the soup kitchen. If there are none then an empty string is returned (string)  \n  * website: an url linking to the website of the soup kitchen. If there are none then an empty string is returned (string)  \n\n\\<operatorname\\> could be any of the operators defined in the flask-restless documentation. \n\n\\<val\\> is a valid value for the filter to process. The type of the value must match the type stated in the attributes above.\n    \n#### order_by:\n  sorts the search query down to a specific subset\n  \n  {\"field\": \\<fieldname\\>, \"direction\": \\<directionname\\>}\n  \n  \\<fieldname\\>: could be any one of the attributes listed in the above section.\n  \n  \\<direction\\>: \"asc\" for ascending direction and \"desc\" for descending direction.\n\n"
								}
							]
						},
						"description": "Obtains a list of soup kitchen models.\n\nSearch, filtering, and sorting are fully supported using an implementation of the flask restless search query. The specific value that each field can accept can be found below. It is worth noting that the filters parameter was used to implement both searching and filtering. The order_by parameter was used to implement sorting."
					},
					"response": [
						{
							"name": "Get Soup Kitchens - search",
							"originalRequest": {
								"method": "GET",
								"header": [
									{
										"description": "Header for search query.",
										"key": "Content-Type",
										"type": "text",
										"value": "application/json"
									}
								],
								"body": {
									"mode": "raw",
									"raw": ""
								},
								"url": {
									"raw": "https://api.inneedofsoup.xyz/api/soup_kitchen?q={\"filters\":[{\"name\":\"name\",\"op\":\"ilike\",\"val\":\"%paw%\"}]}",
									"protocol": "https",
									"host": [
										"api",
										"inneedofsoup",
										"xyz"
									],
									"path": [
										"api",
										"soup_kitchen"
									],
									"query": [
										{
											"key": "q",
											"value": "{\"filters\":[{\"name\":\"name\",\"op\":\"ilike\",\"val\":\"%paw%\"}]}",
											"description": "#### A Json string that specify the search query. The specification should match the  format of the search query as stated in the flask-restless documentation. \n\n#### A biref description is shown below:\n\n  \n#### filters  \n  filters the search query down to a specific subset.\n  \n  {\"name\": \\<fieldname\\>, \"op\":\\<operatorname\\>, \"val\":\\<argument\\>}\n  \n  \\<fieldname\\> could be any one of the attributes listed below:  \n  \n  * name: name of the soup kitchen (string)  \n  * address: address of the soup kitchen (street level) (string)  \n  * city: city of where the soup kitchen is located (string)  \n  * state: state of where the soup kitchen is located (string)  \n  * zip_code: zip code of the soup kitchen (string)  \n  * ein: federal employer identification number of the soup kitchen (int)  \n  * img: an url linking to a picture representing the soup kitchen (string)  \n  * latitude: latitude of the soup kitchen (float)  \n  * longitude: longitude of the soup kitchen (float)  \n  * mission_statement: the mission statement of the soup kitchen. If there are none then an empty string is returned (string)  \n  * website: an url linking to the website of the soup kitchen. If there are none then an empty string is returned (string)  \n\n\\<operatorname\\> could be any of the operators defined in the flask-restless documentation. \n\n\\<val\\> is a valid value for the filter to process. The type of the value must match the type stated in the attributes above.\n    \n#### order_by:\n  sorts the search query down to a specific subset\n  \n  {\"field\": \\<fieldname\\>, \"direction\": \\<directionname\\>}\n  \n  \\<fieldname\\>: could be any one of the attributes listed in the above section.\n  \n  \\<direction\\>: \"asc\" for ascending direction and \"desc\" for descending direction.\n\n"
										}
									]
								}
							},
							"status": "OK",
							"code": 200,
							"_postman_previewlanguage": "json",
							"header": [
								{
									"key": "Date",
									"value": "Thu, 18 Apr 2019 04:56:03 GMT"
								},
								{
									"key": "Content-Type",
									"value": "application/json"
								},
								{
									"key": "Content-Length",
									"value": "1217"
								},
								{
									"key": "Connection",
									"value": "keep-alive"
								},
								{
									"key": "Server",
									"value": "nginx/1.14.0 (Ubuntu)"
								},
								{
									"key": "Link",
									"value": "<http://127.0.0.1:8000/api/soup_kitchen?page=1&results_per_page=10>; rel=\"last\""
								},
								{
									"key": "Link",
									"value": "<http://127.0.0.1:8000/api/soup_kitchen?page=1&results_per_page=10>; rel=\"last\""
								},
								{
									"key": "Vary",
									"value": "Accept"
								},
								{
									"key": "Access-Control-Allow-Origin",
									"value": "*"
								},
								{
									"key": "Access-Control-Allow-Credentials",
									"value": "true"
								},
								{
									"key": "Access-Control-Allow-Headers",
									"value": "Content-Type"
								}
							],
							"cookie": [],
							"body": "{\n    \"num_results\": 1,\n    \"objects\": [\n        {\n            \"address\": \"195 Walcott St\",\n            \"city\": \"Pawtucket\",\n            \"ein\": 50475296,\n            \"img\": \"http://www.pawtucketsoupkitchen.org/publishImages/services~~element58.jpeg\",\n            \"latitude\": 41.877499,\n            \"longitude\": -71.373283,\n            \"mission_statement\": \"\",\n            \"name\": \"PAWTUCKET SOUP KITCHEN\",\n            \"related_foods\": [\n                {\n                    \"food_id\": 14003,\n                    \"soup_kitchen_ein\": 50475296\n                },\n                {\n                    \"food_id\": 14013,\n                    \"soup_kitchen_ein\": 50475296\n                },\n                {\n                    \"food_id\": 14034,\n                    \"soup_kitchen_ein\": 50475296\n                },\n                {\n                    \"food_id\": 14159,\n                    \"soup_kitchen_ein\": 50475296\n                }\n            ],\n            \"related_volunteers\": [\n                {\n                    \"soup_kitchen_ein\": 50475296,\n                    \"volunteer_ein\": 161417558\n                },\n                {\n                    \"soup_kitchen_ein\": 50475296,\n                    \"volunteer_ein\": 521920858\n                },\n                {\n                    \"soup_kitchen_ein\": 50475296,\n                    \"volunteer_ein\": 311392927\n                }\n            ],\n            \"state\": \"Rhode Island\",\n            \"website\": \"\",\n            \"zip_code\": \"02860\"\n        }\n    ],\n    \"page\": 1,\n    \"total_pages\": 1\n}"
						},
						{
							"name": "Get Soup Kitchens",
							"originalRequest": {
								"method": "GET",
								"header": [],
								"body": {
									"mode": "raw",
									"raw": ""
								},
								"url": {
									"raw": "https://api.inneedofsoup.xyz/api/soup_kitchen?",
									"protocol": "https",
									"host": [
										"api",
										"inneedofsoup",
										"xyz"
									],
									"path": [
										"api",
										"soup_kitchen"
									],
									"query": [
										{
											"key": "",
											"value": "",
											"disabled": true
										}
									]
								}
							},
							"status": "OK",
							"code": 200,
							"_postman_previewlanguage": "json",
							"header": [
								{
									"key": "Date",
									"value": "Fri, 29 Mar 2019 00:23:27 GMT"
								},
								{
									"key": "Content-Type",
									"value": "application/json"
								},
								{
									"key": "Content-Length",
									"value": "3134"
								},
								{
									"key": "Connection",
									"value": "keep-alive"
								},
								{
									"key": "Server",
									"value": "nginx/1.14.0 (Ubuntu)"
								},
								{
									"key": "Link",
									"value": "<http://127.0.0.1:8000/api/soup_kitchen?page=2&results_per_page=10>; rel=\"next\", <http://127.0.0.1:8000/api/soup_kitchen?page=5&results_per_page=10>; rel=\"last\""
								},
								{
									"key": "Link",
									"value": "<http://127.0.0.1:8000/api/soup_kitchen?page=2&results_per_page=10>; rel=\"next\", <http://127.0.0.1:8000/api/soup_kitchen?page=5&results_per_page=10>; rel=\"last\""
								},
								{
									"key": "Vary",
									"value": "Accept"
								},
								{
									"key": "Access-Control-Allow-Origin",
									"value": "*"
								},
								{
									"key": "Access-Control-Allow-Credentials",
									"value": "true"
								}
							],
							"cookie": [],
							"body": "{\n    \"num_results\": 50,\n    \"objects\": [\n        {\n            \"address\": \"6 Crystal Ave\",\n            \"city\": \"Derry\",\n            \"ein\": 20438520,\n            \"img\": \"http://www.londonderrynh.net/wp-content/uploads/2013/05/100_0260.jpg\",\n            \"latitude\": 42.882812,\n            \"longitude\": -71.324764,\n            \"mission_statement\": \"\",\n            \"name\": \"SONSHINE SOUP KITCHEN\",\n            \"state\": \"New Hampshire\",\n            \"website\": \"\",\n            \"zip_code\": \"03038\"\n        },\n        {\n            \"address\": \"Po Box 2017\",\n            \"city\": \"Westfield\",\n            \"ein\": 43215576,\n            \"img\": \"http://www.msdacademy.org/wp-content/uploads/2017/11/soup-kitchen-2017-6.jpg\",\n            \"latitude\": 42.114296,\n            \"longitude\": -72.748428,\n            \"mission_statement\": \"\",\n            \"name\": \"WESTFIELD SOUP KITCHEN\",\n            \"state\": \"Massachusetts\",\n            \"website\": \"\",\n            \"zip_code\": \"01086\"\n        },\n        {\n            \"address\": \"195 Walcott St\",\n            \"city\": \"Pawtucket\",\n            \"ein\": 50475296,\n            \"img\": \"http://www.pawtucketsoupkitchen.org/publishImages/services~~element58.jpeg\",\n            \"latitude\": 41.877499,\n            \"longitude\": -71.373283,\n            \"mission_statement\": \"\",\n            \"name\": \"PAWTUCKET SOUP KITCHEN\",\n            \"state\": \"Rhode Island\",\n            \"website\": \"\",\n            \"zip_code\": \"02860\"\n        },\n        {\n            \"address\": \"155 Grand Ave\",\n            \"city\": \"New Haven\",\n            \"ein\": 61071228,\n            \"img\": \"https://s.hdnux.com/photos/67/51/41/14587972/3/920x920.jpg\",\n            \"latitude\": 41.309196,\n            \"longitude\": -72.893311,\n            \"mission_statement\": \"\",\n            \"name\": \"FAIR HAVEN SOUP KITCHEN\",\n            \"state\": \"Connecticut\",\n            \"website\": \"\",\n            \"zip_code\": \"06513\"\n        },\n        {\n            \"address\": \"87 W Main St\",\n            \"city\": \"Malone\",\n            \"ein\": 141797190,\n            \"img\": \"http://www.eriebenedictines.org/sites/default/files/story_photos/emmaus2011.jpg\",\n            \"latitude\": 44.848778,\n            \"longitude\": -74.296455,\n            \"mission_statement\": \"\",\n            \"name\": \"EMMAUS SOUP KITCHEN INC\",\n            \"state\": \"New York\",\n            \"website\": \"\",\n            \"zip_code\": \"12953\"\n        },\n        {\n            \"address\": \"301 S Boulevard\",\n            \"city\": \"Idaho Falls\",\n            \"ein\": 141892228,\n            \"img\": \"http://berksfoodbank.org/wp-content/uploads/2014/01/In-line-at-soup-kitchen.jpeg\",\n            \"latitude\": 43.494862,\n            \"longitude\": -112.033295,\n            \"mission_statement\": \"Operated by volunteers with 95% of funding from the community. We feed an average of 150 guests a nourishing meal 7 day a week.\",\n            \"name\": \"SOUP KITCHEN\",\n            \"state\": \"Idaho\",\n            \"website\": \"\",\n            \"zip_code\": \"83401\"\n        },\n        {\n            \"address\": \"Po Box 2138\",\n            \"city\": \"Meriden\",\n            \"ein\": 222519321,\n            \"img\": \"http://www.meridensoupkitchen.org/images/MSK29B.jpg\",\n            \"latitude\": 41.525482,\n            \"longitude\": -72.768822,\n            \"mission_statement\": \"\",\n            \"name\": \"MERIDEN SOUP KITCHEN INC\",\n            \"state\": \"Connecticut\",\n            \"website\": \"\",\n            \"zip_code\": \"06450\"\n        },\n        {\n            \"address\": \"230 E Fayette St\",\n            \"city\": \"Uniontown\",\n            \"ein\": 251562533,\n            \"img\": \"http://jubileesoupkitchen.org/wp-content/uploads/2015/03/hunters_harvest_13-e1453482663930.jpg\",\n            \"latitude\": 39.895576,\n            \"longitude\": -79.717537,\n            \"mission_statement\": \"\",\n            \"name\": \"JUBILEE SOUP KITCHEN\",\n            \"state\": \"Pennsylvania\",\n            \"website\": \"\",\n            \"zip_code\": \"15401\"\n        },\n        {\n            \"address\": \"333nmain\",\n            \"city\": \"Southbend\",\n            \"ein\": 263121774,\n            \"img\": \"http://www.stjohnsmidtown.org/sites/511/uploaded/images/DSC_0222.JPG\",\n            \"latitude\": 41.680032,\n            \"longitude\": -86.252514,\n            \"mission_statement\": \"\",\n            \"name\": \"DOWNTOWN SOUP KITCHEN\",\n            \"state\": \"Indiana\",\n            \"website\": \"\",\n            \"zip_code\": \"46601\"\n        },\n        {\n            \"address\": \"12642 Moorpark St Unit 3\",\n            \"city\": \"Studio City\",\n            \"ein\": 270622783,\n            \"img\": \"http://thinkpynk.com/wp-content/uploads/2014/12/Corbis-42-25090051.jpg\",\n            \"latitude\": 34.150085,\n            \"longitude\": -118.408897,\n            \"mission_statement\": \"\",\n            \"name\": \"SOUP KITCHEN SERVES INC\",\n            \"state\": \"California\",\n            \"website\": \"\",\n            \"zip_code\": \"91604\"\n        }\n    ],\n    \"page\": 1,\n    \"total_pages\": 5\n}"
						}
					]
				},
				{
					"name": "Get Soup Kitchen Model",
					"event": [
						{
							"listen": "test",
							"script": {
								"id": "865d1bbb-309e-42c1-b2dd-f226788a10a0",
								"exec": [
									"",
									"pm.test(\"Ein exists\", function () {",
									"    pm.expect(pm.response.text()).to.include(\"ein\");",
									"});",
									"",
									"",
									"pm.test(\"Ein is correct\", function () {",
									"    pm.response.json()[\"ein\"] == 20438520;",
									"});"
								],
								"type": "text/javascript"
							}
						}
					],
					"request": {
						"method": "GET",
						"header": [],
						"body": {
							"mode": "raw",
							"raw": ""
						},
						"url": {
							"raw": "https://api.inneedofsoup.xyz/api/soup_kitchen/20438520",
							"protocol": "https",
							"host": [
								"api",
								"inneedofsoup",
								"xyz"
							],
							"path": [
								"api",
								"soup_kitchen",
								"20438520"
							]
						},
						"description": "Obtains a soup kitchen model by EIN, the federal empoloyer identification number, which is unique to each different soup kitchen."
					},
					"response": [
						{
							"name": "Get Soup Kitchen Model",
							"originalRequest": {
								"method": "GET",
								"header": [],
								"body": {
									"mode": "raw",
									"raw": ""
								},
								"url": {
									"raw": "https://api.inneedofsoup.xyz/api/soup_kitchen/20438520",
									"protocol": "https",
									"host": [
										"api",
										"inneedofsoup",
										"xyz"
									],
									"path": [
										"api",
										"soup_kitchen",
										"20438520"
									]
								}
							},
							"status": "OK",
							"code": 200,
							"_postman_previewlanguage": "json",
							"header": [
								{
									"key": "Date",
									"value": "Thu, 28 Mar 2019 10:43:04 GMT"
								},
								{
									"key": "Content-Type",
									"value": "application/json"
								},
								{
									"key": "Content-Length",
									"value": "387"
								},
								{
									"key": "Connection",
									"value": "keep-alive"
								},
								{
									"key": "Server",
									"value": "nginx/1.14.0 (Ubuntu)"
								},
								{
									"key": "Vary",
									"value": "Accept"
								}
							],
							"cookie": [],
							"body": "{\n    \"address\": \"6 CRYSTAL AVE\",\n    \"city\": \"DERRY\",\n    \"ein\": 20438520,\n    \"img\": \"https://bloximages.chicago2.vip.townnews.com/eagletribune.com/content/tncms/assets/v3/editorial/5/0b/50b559e7-ce54-52c9-b5e9-dbffe2aa85f6/59386d500ab71.image.jpg\",\n    \"latitude\": 42.882812,\n    \"longitude\": -71.324764,\n    \"mission_statement\": \"\",\n    \"name\": \"SONSHINE SOUP KITCHEN\",\n    \"state\": \"New Hampshire\",\n    \"website\": \"\",\n    \"zip_code\": \"03038-2413\"\n}"
						}
					]
				}
			],
			"description": "API documentation for Soup Kitchen model",
			"event": [
				{
					"listen": "prerequest",
					"script": {
						"id": "2d345463-70c3-4054-a205-f5a0e82f44a2",
						"type": "text/javascript",
						"exec": [
							""
						]
					}
				},
				{
					"listen": "test",
					"script": {
						"id": "be2d6a72-76f3-4fc0-91bf-6136f779e98b",
						"type": "text/javascript",
						"exec": [
							""
						]
					}
				}
			]
		},
		{
			"name": "Nutrition",
			"item": [
				{
					"name": "Get Foods",
					"event": [
						{
							"listen": "test",
							"script": {
								"id": "0da05991-4623-487b-8bf3-654c083f9bdc",
								"exec": [
									"pm.test(\"Status code is 200\", function () {",
									"    pm.response.to.have.status(200);",
									"});",
									"",
									"pm.test(\"number of results are included\", function () {",
									"    pm.expect(pm.response.text()).to.include(\"num_results\");",
									"});",
									"",
									"pm.test(\"50 results has been returned\", function () {",
									"    var jsonData = pm.response.json();",
									"    pm.expect(jsonData.num_results).to.eql(50);",
									"});",
									"",
									"pm.test(\"returned objects has been sorted correctly\", function () {",
									"    var jsonData = pm.response.json();",
									"    var food_id = jsonData.objects[0].food_id;",
									"   jsonData.objects.forEach((entry)=>{",
									"      pm.expect(entry.food_id).to.be.above(food_id-1);",
									"      food_id = entry.food_id;",
									"   });",
									"});",
									"",
									"pm.test(\"Response time is less than 600ms\", function () {",
									"    pm.expect(pm.response.responseTime).to.be.below(1000);",
									"});",
									""
								],
								"type": "text/javascript"
							}
						}
					],
					"request": {
						"method": "GET",
						"header": [
							{
								"description": "header for search query",
								"key": "Content-Type",
								"type": "text",
								"value": "application/json"
							}
						],
						"body": {
							"mode": "raw",
							"raw": ""
						},
						"url": {
							"raw": "https://api.inneedofsoup.xyz/api/food?q={\"order_by\":[{\"field\":\"food_id\", \"direction\":\"asc\"}]}",
							"protocol": "https",
							"host": [
								"api",
								"inneedofsoup",
								"xyz"
							],
							"path": [
								"api",
								"food"
							],
							"query": [
								{
									"key": "q",
									"value": "{\"order_by\":[{\"field\":\"food_id\", \"direction\":\"asc\"}]}",
									"description": "#### A Json string that specify the search query. The specification should match the  format of the search query as stated in the flask-restless documentation.\n\n#### A brief description is shown below:\n\n #### filters \n filters the search query down to a specific subset.  \n  {\"name\": \\<fieldname\\>, \"op\":\\<operatorname\\>, \"val\":\\<argument\\>}  \n  \\<fieldname\\> could be any one of the attributes listed below:   \n * name: name of the food item (string)  \n * food_id: unique number used to identify the type of food (integer)  \n * measure: quantity of the food measured by (string)  \n * grams_per_measure: the amount of mass that each measure weights in gram (float)  \n * calories: amount of calories that one measure contains (float) \n * calories_per_100g: amount of calories that 100g of food contains (float) \n * carbs: amount of carbohydrates that one measure contains (float) \n * carbs_per_100g:  amount of carbohydrates that 100g of food contains (float) \n * fat: amount of lipid that one measure contains (float)  \n * fat_per_100g:  amount of lipids that 100g of food contains (float)   \n * fiber: amount of fiber that one measure contains (float)  \n * fiber_per_100g: amount of fiber that 100g of food contains (float)   \n * protein: amount of protein that one measure contains (float)\n * protein_per_100g: amount of protein that 100g of food contains (float)   \n * img: an url linking to a picture representing the food (string) \n\n\n\\<operatorname\\> could be any of the operators defined in the flask-restless documentation.\n\n\\<val\\> is a valid value for the filter to process. The type of the value must match the type stated in the attributes above.\n  \n#### order_by:\n sorts the search query down to a specific subset  \n  {\"field\": \\<fieldname\\>, \"direction\": \\<directionname\\>}  \n  \\<fieldname\\>: could be any one of the attributes listed in the above section.  \n  \\<direction\\>: \"asc\" for ascending direction and \"desc\" for descending direction.\n"
								}
							]
						},
						"description": "Obtains a list of food models with associated nutrient models.\n\nSearch, filtering, and sorting are fully supported using an implementation of the flask restless search query. The specific value that each field can accept can be found below. It is worth noting that the filters parameter was used to implement both searching and filtering. The order_by parameter was used to implement sorting."
					},
					"response": [
						{
							"name": "Get Foods",
							"originalRequest": {
								"method": "GET",
								"header": [],
								"body": {
									"mode": "raw",
									"raw": ""
								},
								"url": {
									"raw": "https://api.inneedofsoup.xyz/api/food",
									"protocol": "https",
									"host": [
										"api",
										"inneedofsoup",
										"xyz"
									],
									"path": [
										"api",
										"food"
									]
								}
							},
							"status": "OK",
							"code": 200,
							"_postman_previewlanguage": "json",
							"header": [
								{
									"key": "Date",
									"value": "Thu, 28 Mar 2019 10:46:30 GMT"
								},
								{
									"key": "Content-Type",
									"value": "application/json"
								},
								{
									"key": "Content-Length",
									"value": "2870"
								},
								{
									"key": "Connection",
									"value": "keep-alive"
								},
								{
									"key": "Server",
									"value": "nginx/1.14.0 (Ubuntu)"
								},
								{
									"key": "Link",
									"value": "<http://127.0.0.1:8000/api/food?page=2&results_per_page=10>; rel=\"next\", <http://127.0.0.1:8000/api/food?page=5&results_per_page=10>; rel=\"last\""
								},
								{
									"key": "Link",
									"value": "<http://127.0.0.1:8000/api/food?page=2&results_per_page=10>; rel=\"next\", <http://127.0.0.1:8000/api/food?page=5&results_per_page=10>; rel=\"last\""
								},
								{
									"key": "Vary",
									"value": "Accept"
								}
							],
							"cookie": [],
							"body": "{\n    \"num_results\": 50,\n    \"objects\": [\n        {\n            \"calories\": 31,\n            \"carbs\": 7.54,\n            \"fat\": 0.29,\n            \"fiber\": 1.1,\n            \"food_id\": 9001,\n            \"grams_per_measure\": 98,\n            \"img\": \"http://1.bp.blogspot.com/-wGH8rQohquY/U4697tCyc9I/AAAAAAAAAe0/tR7zT_HNndQ/s1600/Acerola+%2528west+indian+cherry%2529+raw+Malpighia+emarginata.bmp\",\n            \"measure\": \"1.0 cup\",\n            \"name\": \"Acerola, (west indian cherry), raw\",\n            \"protein\": 0.39\n        },\n        {\n            \"calories\": 56,\n            \"carbs\": 11.62,\n            \"fat\": 0,\n            \"fiber\": 0.7,\n            \"food_id\": 9002,\n            \"grams_per_measure\": 242,\n            \"img\": \"http://www.weightchart.com/static/nutrition-daily-value/acerola-juice-raw-1-cup-242g-dv.png\",\n            \"measure\": \"1.0 cup\",\n            \"name\": \"Acerola juice, raw\",\n            \"protein\": 0.97\n        },\n        {\n            \"calories\": 79,\n            \"carbs\": 20.06,\n            \"fat\": 0.11,\n            \"fiber\": 6,\n            \"food_id\": 9427,\n            \"grams_per_measure\": 114,\n            \"img\": \"https://caloriecounter.io/wp-content/uploads/2015/11/Abiyuch-raw.jpg\",\n            \"measure\": \"0.5 cup\",\n            \"name\": \"Abiyuch, raw\",\n            \"protein\": 1.71\n        },\n        {\n            \"calories\": 13,\n            \"carbs\": 1.05,\n            \"fat\": 0,\n            \"fiber\": 0,\n            \"food_id\": 14003,\n            \"grams_per_measure\": 29.7,\n            \"img\": \"http://images-cdn.azureedge.net/azure/lulu-resources/fc211e9f-cffc-4ad2-88fb-99bc9faf96e1/Images/ProductImages/Source/753358-001.jpg\",\n            \"measure\": \"1.0 fl oz\",\n            \"name\": \"Alcoholic beverage, beer, regular, all\",\n            \"protein\": 0.14\n        },\n        {\n            \"calories\": 12,\n            \"carbs\": 0.89,\n            \"fat\": 0,\n            \"fiber\": 0,\n            \"food_id\": 14004,\n            \"grams_per_measure\": 29.8,\n            \"img\": \"http://www.weightchart.com/static/nutrition-daily-value/alcoholic-beverage-beer-regular-budweiser-100-grams-dv.png\",\n            \"measure\": \"1.0 fl oz\",\n            \"name\": \"Alcoholic beverage, beer, regular, BUDWEISER\",\n            \"protein\": 0.11\n        },\n        {\n            \"calories\": 8,\n            \"carbs\": 0.26,\n            \"fat\": 0,\n            \"fiber\": 0,\n            \"food_id\": 14005,\n            \"grams_per_measure\": 29.5,\n            \"img\": \"http://theathleticbuild.com/wp-content/uploads/2012/05/BudSel1.jpg\",\n            \"measure\": \"1.0 fl oz\",\n            \"name\": \"Alcoholic beverage, beer, light, BUDWEISER SELECT\",\n            \"protein\": 0.06\n        },\n        {\n            \"calories\": 9,\n            \"carbs\": 0.48,\n            \"fat\": 0,\n            \"fiber\": 0,\n            \"food_id\": 14006,\n            \"grams_per_measure\": 29.5,\n            \"img\": \"http://img1.cookinglight.timeinc.net/sites/default/files/image/2015/09/main/1510p70-ultra-light-beer.jpg\",\n            \"measure\": \"1.0 fl oz\",\n            \"name\": \"Alcoholic beverage, beer, light\",\n            \"protein\": 0.07\n        },\n        {\n            \"calories\": 9,\n            \"carbs\": 0.38,\n            \"fat\": 0,\n            \"fiber\": 0,\n            \"food_id\": 14007,\n            \"grams_per_measure\": 29.5,\n            \"img\": \"https://s-media-cache-ak0.pinimg.com/736x/a8/22/63/a822634ee8dcd44edc13c49063af17df.jpg\",\n            \"measure\": \"1.0 fl oz\",\n            \"name\": \"Alcoholic beverage, beer, light, BUD LIGHT\",\n            \"protein\": 0.07\n        },\n        {\n            \"calories\": 38,\n            \"carbs\": 4.79,\n            \"fat\": 0,\n            \"fiber\": 0,\n            \"food_id\": 14009,\n            \"grams_per_measure\": 30.5,\n            \"img\": \"http://www.buzzle.com/images/recipe-pictures/drinks/non-alcoholic-strawberry-daiquiri.jpg\",\n            \"measure\": \"1.0 fl oz\",\n            \"name\": \"Alcoholic beverage, daiquiri, canned\",\n            \"protein\": 0\n        },\n        {\n            \"calories\": 56,\n            \"carbs\": 2.1,\n            \"fat\": 0,\n            \"fiber\": 0,\n            \"food_id\": 14010,\n            \"grams_per_measure\": 30.2,\n            \"img\": \"http://intheplayroom.co.uk/wp-content/uploads/2015/01/strawbmocktpin.jpg\",\n            \"measure\": \"1.0 fl oz\",\n            \"name\": \"Alcoholic beverage, daiquiri, prepared-from-recipe\",\n            \"protein\": 0.02\n        }\n    ],\n    \"page\": 1,\n    \"total_pages\": 5\n}"
						}
					]
				},
				{
					"name": "Get Food Model",
					"event": [
						{
							"listen": "test",
							"script": {
								"id": "ce377554-01cd-441d-8744-c5de2c7b91fd",
								"exec": [
									"pm.test(\"Status code is 200\", function () {",
									"    pm.response.to.have.status(200);",
									"});",
									"",
									"pm.test(\"returned correct attribute values\", function () {",
									"    var jsonData = pm.response.json();",
									"    pm.expect(jsonData[\"calories\"]).to.eql(31);",
									"    pm.expect(jsonData[\"carbs\"]).to.eql(7.54);",
									"    pm.expect(jsonData[\"fat\"]).to.eql(0.29);",
									"    pm.expect(jsonData[\"fiber\"]).to.eql(1.1);",
									"    pm.expect(jsonData[\"protein\"]).to.eql(0.39);",
									"});"
								],
								"type": "text/javascript"
							}
						}
					],
					"request": {
						"method": "GET",
						"header": [],
						"body": {
							"mode": "raw",
							"raw": ""
						},
						"url": {
							"raw": "https://api.inneedofsoup.xyz/api/food/<id>",
							"protocol": "https",
							"host": [
								"api",
								"inneedofsoup",
								"xyz"
							],
							"path": [
								"api",
								"food",
								"<id>"
							]
						},
						"description": "obtain the nutrition information of a particular food its id. The food id is unique to each different type of food."
					},
					"response": [
						{
							"name": "Get Food Model",
							"originalRequest": {
								"method": "GET",
								"header": [],
								"body": {
									"mode": "raw",
									"raw": ""
								},
								"url": {
									"raw": "https://api.inneedofsoup.xyz/api/food/9001",
									"protocol": "https",
									"host": [
										"api",
										"inneedofsoup",
										"xyz"
									],
									"path": [
										"api",
										"food",
										"9001"
									]
								}
							},
							"status": "OK",
							"code": 200,
							"_postman_previewlanguage": "json",
							"header": [
								{
									"key": "Date",
									"value": "Thu, 28 Mar 2019 10:49:48 GMT"
								},
								{
									"key": "Content-Type",
									"value": "application/json"
								},
								{
									"key": "Content-Length",
									"value": "327"
								},
								{
									"key": "Connection",
									"value": "keep-alive"
								},
								{
									"key": "Server",
									"value": "nginx/1.14.0 (Ubuntu)"
								},
								{
									"key": "Vary",
									"value": "Accept"
								}
							],
							"cookie": [],
							"body": "{\n    \"calories\": 31,\n    \"carbs\": 7.54,\n    \"fat\": 0.29,\n    \"fiber\": 1.1,\n    \"food_id\": 9001,\n    \"grams_per_measure\": 98,\n    \"img\": \"http://1.bp.blogspot.com/-wGH8rQohquY/U4697tCyc9I/AAAAAAAAAe0/tR7zT_HNndQ/s1600/Acerola+%2528west+indian+cherry%2529+raw+Malpighia+emarginata.bmp\",\n    \"measure\": \"1.0 cup\",\n    \"name\": \"Acerola, (west indian cherry), raw\",\n    \"protein\": 0.39\n}"
						}
					]
				}
			],
			"description": "Contains API Documation for the nutrition model",
			"event": [
				{
					"listen": "prerequest",
					"script": {
						"id": "ec5da454-0d6e-446f-8efe-45ef4558dcac",
						"type": "text/javascript",
						"exec": [
							""
						]
					}
				},
				{
					"listen": "test",
					"script": {
						"id": "19b11e93-ff6a-474c-a103-ca872c166bcf",
						"type": "text/javascript",
						"exec": [
							""
						]
					}
				}
			]
		},
		{
			"name": "Volunteer/Donation",
			"item": [
				{
					"name": "Get Charities",
					"event": [
						{
							"listen": "test",
							"script": {
								"id": "f2573020-8a3d-40b0-a437-494bc924dda5",
								"exec": [
									"pm.test(\"Status code is 200\", function () {",
									"    pm.response.to.have.status(200);",
									"});",
									"",
									"pm.test(\"makes sure that more than the numbe of objects are above 0\", function () {",
									"    pm.expect(pm.response.text()).to.include(\"objects\");",
									"    var jsonData = pm.response.json();",
									"    pm.expect(jsonData[\"objects\"].length).to.be.above(0);",
									"});",
									"",
									"pm.test(\"Response time is less than 600ms\", function () {",
									"    pm.expect(pm.response.responseTime).to.be.below(600);",
									"});",
									"",
									"pm.test(\"Filter works\", function () {",
									"    var jsonData = pm.response.json();",
									"   jsonData.objects.forEach((entry)=>{",
									"      pm.expect(entry.accepting_donations).to.equal(true);",
									"   });",
									"});",
									"",
									"pm.test(\"Ordering works\", function () {",
									"    var jsonData = pm.response.json();",
									"    var ein = jsonData.objects[0].ein;",
									"   jsonData.objects.forEach((entry)=>{",
									"      pm.expect(entry.ein).to.be.below(ein+1);",
									"      ein = entry.ein;",
									"   });",
									"});"
								],
								"type": "text/javascript"
							}
						}
					],
					"request": {
						"method": "GET",
						"header": [
							{
								"key": "Content-Type",
								"value": "application/json",
								"description": "header for search query",
								"type": "text"
							}
						],
						"body": {
							"mode": "raw",
							"raw": ""
						},
						"url": {
							"raw": "https://api.inneedofsoup.xyz/api/donation_opportunity?q={\"order_by\":[{\"field\":\"ein\", \"direction\":\"desc\"}], \"filters\":[{\"name\":\"accepting_donations\",\"op\":\"==\",\"val\":true}]}",
							"protocol": "https",
							"host": [
								"api",
								"inneedofsoup",
								"xyz"
							],
							"path": [
								"api",
								"donation_opportunity"
							],
							"query": [
								{
									"key": "q",
									"value": "{\"order_by\":[{\"field\":\"ein\", \"direction\":\"desc\"}], \"filters\":[{\"name\":\"accepting_donations\",\"op\":\"==\",\"val\":true}]}",
									"description": "#### A Json string that specify the search query. The specification should match the  format of the search query as stated in the flask-restless documentation.  \n\n#### A brief description is shown below:  \n\n #### filters   \n filters the search query down to a specific subset.  \n  {\"name\": \\<fieldname\\>, \"op\":\\<operatorname\\>, \"val\":\\<argument\\>}  \n  \\<fieldname\\> could be any one of the attributes listed below:   \n * name: name of the charity organization (string)   \n * address: address of the charity organization (street level) (string)   \n * city: city of where the charity organization is located (string)   \n * state: state of where the charity organization is located (string)   \n * zip_code: zip code of the charity organization (string) \n * deductibility: a brief statement about whether donations are deductible or not. (string)  \n * accepting_donations: a boolean value indicating whether or not the organization is accepting donation. (boolean)  \n * assets: The total value of the charity. 0.0 means that the value is unknown. (float)\n * income: The yearly income of the charity. 0.0 means that the value is unknown. (float)\n * ein: federal employer identification number of the charity organization (int) \n * img: an url linking to a picture representing the charity organization (string) \n * latitude: latitude of the charity organization (float) \n * longitude: longitude of the charity organization (float) \n * mission_statement: the mission statement of the charity organization. If there are none then an empty string is returned (string) \n * website: an url linking to the website of the charity organization. If there are none then an empty string is returned (string) \n\n\\<operatorname\\> could be any of the operators defined in the flask-restless documentation.\n\n\\<val\\> is a valid value for the filter to process. The type of the value must match the type stated in the attributes above.\n  \n#### order_by:\n sorts the search query down to a specific subset  \n  {\"field\": \\<fieldname\\>, \"direction\": \\<directionname\\>}  \n  \\<fieldname\\>: could be any one of the attributes listed in the above section.  \n  \\<direction\\>: \"asc\" for ascending direction and \"desc\" for descending direction.  \n"
								}
							]
						},
						"description": "Obtain a list of charity organization models for volunteering and donation purposes.\n\nSearch, filtering, and sorting are fully supported using an implementation of the flask restless search query. The specific value that each field can accept can be found below. It is worth noting that the filters parameter was used to implement both searching and filtering. The order_by parameter was used to implement sorting."
					},
					"response": [
						{
							"name": "Get Charities",
							"originalRequest": {
								"method": "GET",
								"header": [],
								"body": {
									"mode": "raw",
									"raw": ""
								},
								"url": {
									"raw": "https://api.inneedofsoup.xyz/api/donation_opportunity",
									"protocol": "https",
									"host": [
										"api",
										"inneedofsoup",
										"xyz"
									],
									"path": [
										"api",
										"donation_opportunity"
									]
								}
							},
							"status": "OK",
							"code": 200,
							"_postman_previewlanguage": "json",
							"header": [
								{
									"key": "Date",
									"value": "Thu, 28 Mar 2019 10:53:39 GMT"
								},
								{
									"key": "Content-Type",
									"value": "application/json"
								},
								{
									"key": "Content-Length",
									"value": "4349"
								},
								{
									"key": "Connection",
									"value": "keep-alive"
								},
								{
									"key": "Server",
									"value": "nginx/1.14.0 (Ubuntu)"
								},
								{
									"key": "Link",
									"value": "<http://127.0.0.1:8000/api/donation_opportunity?page=2&results_per_page=10>; rel=\"next\", <http://127.0.0.1:8000/api/donation_opportunity?page=5&results_per_page=10>; rel=\"last\""
								},
								{
									"key": "Link",
									"value": "<http://127.0.0.1:8000/api/donation_opportunity?page=2&results_per_page=10>; rel=\"next\", <http://127.0.0.1:8000/api/donation_opportunity?page=5&results_per_page=10>; rel=\"last\""
								},
								{
									"key": "Vary",
									"value": "Accept"
								}
							],
							"cookie": [],
							"body": "{\n    \"num_results\": 50,\n    \"objects\": [\n        {\n            \"accepting_donations\": true,\n            \"address\": \"PO BOX 704\",\n            \"assets\": 966962,\n            \"city\": \"PORTLAND\",\n            \"deductibility\": \"Contributions are deductible.\",\n            \"ein\": 10352636,\n            \"img\": \"https://i.ytimg.com/vi/wzvhtBd8T_U/maxresdefault.jpg\",\n            \"income\": 1935028,\n            \"latitude\": 43.66,\n            \"longitude\": -70.269997,\n            \"mission_statement\": \"Domestic violence resource center offering safe and accessible services to victims 24 hotline, emergency shelter, outreach and court advocacy, school education and prevention.\",\n            \"name\": \"THROUGH THESE DOORS\",\n            \"state\": \"Maine\",\n            \"website\": \"www.familycrisis.org\",\n            \"zip_code\": \"04104-0704\"\n        },\n        {\n            \"accepting_donations\": true,\n            \"address\": \"PO BOX 3\",\n            \"assets\": 0,\n            \"city\": \"NORTH HAMPTON\",\n            \"deductibility\": \"Contributions are deductible.\",\n            \"ein\": 20484681,\n            \"img\": \"http://www.hampton.lib.nh.us/hampton/images/veterans/USAFlibertypops2006a.jpg\",\n            \"income\": 0,\n            \"latitude\": 42.982346,\n            \"longitude\": -70.823891,\n            \"mission_statement\": \"\",\n            \"name\": \"FRIENDS OF THE NORTH HAMPTON BANDSTAND INC\",\n            \"state\": \"New Hampshire\",\n            \"website\": \"\",\n            \"zip_code\": \"03862-0003\"\n        },\n        {\n            \"accepting_donations\": true,\n            \"address\": \"213 W INSTITUTE PL STE 505\",\n            \"assets\": 0,\n            \"city\": \"CHICAGO\",\n            \"deductibility\": \"Contributions are deductible.\",\n            \"ein\": 20782641,\n            \"img\": \"http://2.bp.blogspot.com/-aKxsElWRhys/Tpt87x8RgSI/AAAAAAAADjk/kUYbAaU4UQo/s1600/EmanuelBaptistMR.JPG\",\n            \"income\": 0,\n            \"latitude\": 41.897186,\n            \"longitude\": -87.635208,\n            \"mission_statement\": \"\",\n            \"name\": \"RIVER NORTH BAPTIST CHURCH\",\n            \"state\": \"Illinois\",\n            \"website\": \"\",\n            \"zip_code\": \"60610-3375\"\n        },\n        {\n            \"accepting_donations\": false,\n            \"address\": \"PO BOX 814\",\n            \"assets\": 0,\n            \"city\": \"WILLISTON\",\n            \"deductibility\": \"Contributions are not deductible.\",\n            \"ein\": 30223860,\n            \"img\": \"http://www.svtrealtors.com/wp-content/uploads/2013/12/house-picket-fence-980x400.png\",\n            \"income\": 0,\n            \"latitude\": 44.445278,\n            \"longitude\": -73.099167,\n            \"mission_statement\": \"\",\n            \"name\": \"SOUTHERN VERMONT BOARD OF REALTORS INC\",\n            \"state\": \"Vermont\",\n            \"website\": \"\",\n            \"zip_code\": \"05495-0814\"\n        },\n        {\n            \"accepting_donations\": true,\n            \"address\": \"PO BOX 114\",\n            \"assets\": 208945,\n            \"city\": \"BELMONT\",\n            \"deductibility\": \"Contributions are deductible.\",\n            \"ein\": 161417558,\n            \"img\": \"https://cdn.canamrv.ca/dealer-media/w1920/solitude_373fb_bedroom_web_5023.jpg\",\n            \"income\": 32251,\n            \"latitude\": 42.252254,\n            \"longitude\": -77.996704,\n            \"mission_statement\": \"\",\n            \"name\": \"CENTER OF SOLITUDE INC\",\n            \"state\": \"New York\",\n            \"website\": \"\",\n            \"zip_code\": \"14813-0114\"\n        },\n        {\n            \"accepting_donations\": true,\n            \"address\": \"4171 W EVANS DR\",\n            \"assets\": 19225,\n            \"city\": \"PHOENIX\",\n            \"deductibility\": \"Contributions are deductible.\",\n            \"ein\": 204560332,\n            \"img\": \"http://www.sprung.com/wp-content/uploads/gallery/project-9-redemption-world-outrech-center-1-dsc_2948-listing-thumb.jpg\",\n            \"income\": 416163,\n            \"latitude\": 33.616933,\n            \"longitude\": -112.148774,\n            \"mission_statement\": \"\",\n            \"name\": \"REDEEMED OUTREACH CENTER\",\n            \"state\": \"Arizona\",\n            \"website\": \"\",\n            \"zip_code\": \"85053-5323\"\n        },\n        {\n            \"accepting_donations\": true,\n            \"address\": \"PO BOX 383\",\n            \"assets\": 0,\n            \"city\": \"CABOOL\",\n            \"deductibility\": \"Contributions are deductible.\",\n            \"ein\": 208891982,\n            \"img\": \"http://www.petfinderfoundation.com/wp-content/uploads/2014/08/2014-07-08_06-55-27_108.jpg\",\n            \"income\": 0,\n            \"latitude\": 37.12394,\n            \"longitude\": -92.101265,\n            \"mission_statement\": \"\",\n            \"name\": \"OZARK HAVEN RESCUE\",\n            \"state\": \"Missouri\",\n            \"website\": \"\",\n            \"zip_code\": \"65689-0383\"\n        },\n        {\n            \"accepting_donations\": false,\n            \"address\": \"PO BOX 82\",\n            \"assets\": 0,\n            \"city\": \"DOWNSVILLE\",\n            \"deductibility\": \"Contributions are not deductible.\",\n            \"ein\": 222255236,\n            \"img\": \"http://saguaro-juniper.com/corbett/Jim_at_fence.jpg\",\n            \"income\": 0,\n            \"latitude\": 42.08092,\n            \"longitude\": -74.99572,\n            \"mission_statement\": \"\",\n            \"name\": \"CORBETT COMMUNITY CORPORATION\",\n            \"state\": \"New York\",\n            \"website\": \"\",\n            \"zip_code\": \"13755-0082\"\n        },\n        {\n            \"accepting_donations\": false,\n            \"address\": \"2915 RIDGEWAY RD STE 2\",\n            \"assets\": 386813,\n            \"city\": \"MANCHESTER\",\n            \"deductibility\": null,\n            \"ein\": 226837414,\n            \"img\": \"\",\n            \"income\": 15749,\n            \"latitude\": 40.022034,\n            \"longitude\": -74.268321,\n            \"mission_statement\": \"\",\n            \"name\": \"BLAIR MACKENZIE CRUT JT2 45 04752 01 4\",\n            \"state\": \"New Jersey\",\n            \"website\": \"\",\n            \"zip_code\": \"08759-4755\"\n        },\n        {\n            \"accepting_donations\": true,\n            \"address\": \"300 MOONHILL DR\",\n            \"assets\": 131733,\n            \"city\": \"SCHUYKL HAVN\",\n            \"deductibility\": \"Contributions are deductible.\",\n            \"ein\": 232865324,\n            \"img\": \"https://cdn.greatnonprofits.org/images/uploads/organizations/DSC02971.JPG\",\n            \"income\": 164088,\n            \"latitude\": 40.601856,\n            \"longitude\": -76.21315,\n            \"mission_statement\": \"\",\n            \"name\": \"RED CREEK WILDLIFE CENTER INC\",\n            \"state\": \"Pennsylvania\",\n            \"website\": \"\",\n            \"zip_code\": \"17972-9622\"\n        }\n    ],\n    \"page\": 1,\n    \"total_pages\": 5\n}"
						}
					]
				},
				{
					"name": "Get Charity Model",
					"event": [
						{
							"listen": "test",
							"script": {
								"id": "2c30d903-1518-4dbd-8f1c-757192ea7a5b",
								"exec": [
									"",
									"",
									"pm.test(\"Ein exists and is valid\", function () {",
									"    pm.expect(pm.response.text()).to.include(\"ein\");",
									"    var jsonData = pm.response.json();",
									"    pm.expect(jsonData[\"ein\"]).to.eql(30223860);",
									"});",
									"",
									"",
									"pm.test(\"Check longitude and latitude\", function () {",
									"    var jsonData = pm.response.json();",
									"    pm.expect(jsonData[\"longitude\"]).to.eql(-73.099167);",
									"    pm.expect(jsonData[\"latitude\"]).to.eql(44.445278);",
									"});",
									"",
									"pm.test(\"Status code is 200\", function () {",
									"    pm.response.to.have.status(200);",
									"});"
								],
								"type": "text/javascript"
							}
						}
					],
					"request": {
						"method": "GET",
						"header": [],
						"body": {
							"mode": "raw",
							"raw": ""
						},
						"url": {
							"raw": "https://api.inneedofsoup.xyz/api/donation_opportunity/30223860",
							"protocol": "https",
							"host": [
								"api",
								"inneedofsoup",
								"xyz"
							],
							"path": [
								"api",
								"donation_opportunity",
								"30223860"
							]
						},
						"description": "Get a specific charity model based on EIN, the federal employer identification number. The EIN is unique to each different charity."
					},
					"response": [
						{
							"name": "Get Charity Model",
							"originalRequest": {
								"method": "GET",
								"header": [],
								"body": {
									"mode": "raw",
									"raw": ""
								},
								"url": {
									"raw": "https://api.inneedofsoup.xyz/api/donation_opportunity/20484681",
									"protocol": "https",
									"host": [
										"api",
										"inneedofsoup",
										"xyz"
									],
									"path": [
										"api",
										"donation_opportunity",
										"20484681"
									]
								}
							},
							"status": "OK",
							"code": 200,
							"_postman_previewlanguage": "json",
							"header": [
								{
									"key": "Date",
									"value": "Thu, 28 Mar 2019 10:56:05 GMT"
								},
								{
									"key": "Content-Type",
									"value": "application/json"
								},
								{
									"key": "Content-Length",
									"value": "428"
								},
								{
									"key": "Connection",
									"value": "keep-alive"
								},
								{
									"key": "Server",
									"value": "nginx/1.14.0 (Ubuntu)"
								},
								{
									"key": "Vary",
									"value": "Accept"
								}
							],
							"cookie": [],
							"body": "{\n    \"accepting_donations\": true,\n    \"address\": \"PO BOX 3\",\n    \"assets\": 0,\n    \"city\": \"NORTH HAMPTON\",\n    \"deductibility\": \"Contributions are deductible.\",\n    \"ein\": 20484681,\n    \"img\": \"http://www.hampton.lib.nh.us/hampton/images/veterans/USAFlibertypops2006a.jpg\",\n    \"income\": 0,\n    \"latitude\": 42.982346,\n    \"longitude\": -70.823891,\n    \"mission_statement\": \"\",\n    \"name\": \"FRIENDS OF THE NORTH HAMPTON BANDSTAND INC\",\n    \"state\": \"New Hampshire\",\n    \"website\": \"\",\n    \"zip_code\": \"03862-0003\"\n}"
						}
					]
				}
			],
			"description": "Contains information for Volunteering and Donation model"
		}
	],
	"event": [
		{
			"listen": "prerequest",
			"script": {
				"id": "4365ac47-3ebe-4215-a05c-a2d16d23b0f1",
				"type": "text/javascript",
				"exec": [
					""
				]
			}
		},
		{
			"listen": "test",
			"script": {
				"id": "512e20b2-d6f9-4fb9-a5e5-9daa56e30252",
				"type": "text/javascript",
				"exec": [
					""
				]
			}
		}
	]
}